{
  "$schema": "https://raw.githubusercontent.com/martinring/tmlanguage/master/tmlanguage.json",
  "name": "Tao",
  "fileTypes": ["tao"],
  "scopeName": "source.tao",
  "patterns": [
    {
      "include": "#attribute"
    },
    {
      "include": "#comment"
    },
    {
      "include": "#punctuation"
    },
    {
      "include": "#operator"
    },
    {
      "include": "#constant"
    },
    {
      "include": "#keyword"
    },
    {
      "include": "#intrinsic"
    },
    {
      "include": "#type"
    },
    {
      "include": "#variable"
    }
  ],
  "repository": {
    "attribute": {
      "patterns": [
        {
          "comment": "attribute",
          "name": "meta.attribute.tao",
          "begin": "(\\$)(\\[)",
          "beginCaptures": {
            "1": {
              "name": "punctuation.definition.attribute.tao"
            },
            "2": {
              "name": "punctuation.brackets.attribute.tao"
            }
          },
          "end": "\\]",
          "endCaptures": {
            "0": {
              "name": "punctuation.brackets.attribute.tao"
            }
          },
          "patterns": [
            {
              "include": "#comment"
            },
            {
              "include": "#punctuation"
            },
            {
              "include": "#operator"
            },
            {
              "include": "#constant"
            },
            {
              "include": "#keyword"
            },
            {
              "include": "#type"
            },
            {
              "include": "#variable"
            }
          ]
        }
      ]
    },
    "comment": {
      "patterns": [
        {
          "comment": "comment",
          "name": "comment.line.tao",
          "match": "\\s*#.*"
        }
      ]
    },
    "punctuation": {
      "patterns": [
        {
          "comment": "dot",
          "name": "punctuation.dot.tao",
          "match": "\\.(?!\\.)"
        },
        {
          "comment": "comma",
          "name": "punctuation.comma.tao",
          "match": ","
        },
        {
          "comment": "colon",
          "name": "keyword.operator.colon.tao",
          "match": ":"
        },
        {
          "comment": "semi",
          "name": "punctuation.semi.tao",
          "match": ";"
        },
        {
          "comment": "parenthesis",
          "name": "punctuation.brackets.round.tao",
          "match": "[()]"
        },
        {
          "comment": "square bracket",
          "name": "punctuation.brackets.square.tao",
          "match": "[\\[\\]]"
        },
        {
          "comment": "curly brace",
          "name": "punctuation.brackets.curly.tao",
          "match": "[{}]"
        },
        {
          "comment": "left arrow",
          "name": "keyword.operator.arrow.left.tao",
          "match": "<-"
        },
        {
          "comment": "right arrow",
          "name": "punctuation.arrow.right.tao",
          "match": "->"
        },
        {
          "comment": "flow arrow",
          "name": "keyword.operator.arrow.flow.tao",
          "match": "=>"
        },
        {
          "comment": "branch body",
          "name": "punctuation.pipe.body.tao",
          "match": "\\|"
        },
        {
          "comment": "branch end",
          "name": "punctuation.pipe.end.tao",
          "match": "\\\\"
        }
      ]
    },
    "operator": {
      "patterns": [
        {
          "comment": "arithmetic operator",
          "name": "keyword.operator.math.tao",
          "match": "([+\\-*\\/%]|\\+\\+)"
        },
        {
          "comment": "relational operator",
          "name": "keyword.operator.comparison.tao",
          "match": "(=|!=|>|>=|<|<=)"
        },
        {
          "comment": "logical not/propagate",
          "name": "keyword.operator.logical.not.tao",
          "match": "!"
        },
        {
          "comment": "logical word",
          "name": "keyword.operator.logical.word.tao",
          "match": "\\b(and|or|xor)\\b"
        },
        {
          "comment": "wildcard pattern",
          "name": "punctuation.pattern.wild.tao",
          "match": "_(?![_a-zA-Z0-9])"
        },
        {
          "comment": "binding pattern",
          "name": "punctuation.pattern.binding.tao",
          "match": "~"
        },
        {
          "comment": "rest pattern",
          "name": "punctuation.pattern.rest.tao",
          "match": "\\.\\."
        }
      ]
    },
    "escape": {
      "patterns": [
        {
          "comment": "escape",
          "name": "constant.character.escape.tao",
          "match": "\\\\[\\\\\\/\"bfnrt]"
        }
      ]
    },
    "constant": {
      "patterns": [
        {
          "comment": "integer",
          "name": "constant.numeric.tao",
          "match": "\\b\\d+[iu]?\\b",
          "captures": {
            "1": {
              "name": "keyword.operator.sign.tao"
            },
            "2": {
              "name": "entity.name.type.numeric.tao"
            }
          }
        },
        {
          "comment": "real",
          "name": "constant.numeric.decimal.tao",
          "match": "\\b\\d+(\\.)\\d+\\b",
          "captures": {
            "1": {
              "name": "keyword.operator.sign.tao"
            },
            "2": {
              "name": "punctuation.separator.dot.tao"
            }
          }
        },
        {
          "comment": "character",
          "name": "string.quoted.single.char.tao",
          "begin": "'",
          "beginCaptures": {
            "0": {
              "name": "punctuation.definition.char.tao"
            }
          },
          "end": "'",
          "endCaptures": {
            "0": {
              "name": "punctuation.definition.char.tao"
            }
          },
          "patterns": [
            {
              "include": "#escape"
            }
          ]
        },
        {
          "comment": "string",
          "name": "string.quoted.double.tao",
          "begin": "\"",
          "beginCaptures": {
            "0": {
              "name": "punctuation.definition.string.tao"
            }
          },
          "end": "\"",
          "endCaptures": {
            "0": {
              "name": "punctuation.definition.string.tao"
            }
          },
          "patterns": [
            {
              "include": "#escape"
            }
          ]
        }
      ]
    },
    "keyword": {
      "patterns": [
        {
          "comment": "control flow keyword",
          "name": "keyword.control.tao",
          "match": "\\b(as|do|else|handle|if|in|is|let|match|of|return|then|when)\\b"
        },
        {
          "comment": "declaration keyword",
          "name": "keyword.declaration.tao",
          "match": "\\b(class|data|def|effect|fn|for|import|member|mod|type|where|with)\\b"
        }
      ]
    },
    "type": {
      "patterns": [
        {
          "comment": "self type",
          "name": "variable.language.self.tao",
          "match": "\\bSelf\\b"
        },
        {
          "comment": "primitive type",
          "name": "entity.name.type.primitive.tao",
          "match": "\\bChar\\b"
        },
        {
          "comment": "numeric type",
          "name": "entity.name.type.numeric.tao",
          "match": "\\b(Int|Nat|Real)\\b"
        },
        {
          "comment": "universe type",
          "name": "entity.name.type.universe.tao",
          "match": "\\@"
        },
        {
          "comment": "unknown type",
          "name": "entity.name.type.unknown.tao",
          "match": "\\?"
        },
        {
          "comment": "type",
          "name": "entity.name.type.tao",
          "match": "\\b[A-Z][_a-zA-Z0-9]*\\b"
        }
      ]
    },
    "variable": {
      "patterns": [
        {
          "comment": "variable",
          "name": "variable.other.tao",
          "match": "\\b[_a-z][_a-zA-Z0-9]*\\b"
        }
      ]
    },
    "intrinsic": {
      "patterns": [
        {
          "comment": "intrinsic",
          "name": "meta.intrinsic.tao",
          "match": "@[_a-zA-Z][_a-zA-Z0-9]*"
        }
      ]
    }
  }
}
